<svg width="36" height="36" viewBox="0 0 36 36" fill="none" xmlns="http://www.w3.org/2000/svg">
<path fill-rule="evenodd" clip-rule="evenodd" d="M10 9H13.5C14.05 9 14.5 9.45 14.5 10C14.5 11.25 14.7 12.45 15.07 13.57C15.18 13.92 15.1 14.31 14.82 14.59L12.62 16.79C14.06 19.62 16.38 21.93 19.21 23.38L21.41 21.18C21.61 20.99 21.86 20.89 22.12 20.89C22.22 20.89 22.33 20.9 22.43 20.94C23.55 21.31 24.76 21.51 26 21.51C26.55 21.51 27 21.96 27 22.51V26C27 26.55 26.55 27 26 27C16.61 27 9 19.39 9 10C9 9.45 9.45 9 10 9ZM12.54 11C12.6 11.89 12.75 12.76 12.99 13.59L11.79 14.79C11.38 13.59 11.12 12.32 11.03 11H12.54ZM22.4 23.02C23.25 23.26 24.12 23.41 25 23.47V24.96C23.68 24.87 22.41 24.61 21.2 24.21L22.4 23.02Z" fill="white"/>
</svg>
