<svg width="48" height="48" viewBox="0 0 48 48" fill="none" xmlns="http://www.w3.org/2000/svg">
<g clip-path="url(#clip0)">
<path fill-rule="evenodd" clip-rule="evenodd" d="M32.1225 27.5731C31.6755 27.3496 29.484 26.2726 29.076 26.1226C28.668 25.9741 28.371 25.9006 28.0725 26.3476C27.7755 26.7916 26.922 27.7966 26.6625 28.0936C26.4015 28.3921 26.142 28.4281 25.6965 28.2061C25.251 27.9811 23.814 27.5116 22.1115 25.9936C20.787 24.8116 19.8915 23.3521 19.632 22.9051C19.3725 22.4596 19.6035 22.2181 19.827 21.9961C20.028 21.7966 20.2725 21.4756 20.496 21.2161C20.7195 20.9551 20.793 20.7691 20.9415 20.4706C21.0915 20.1736 21.0165 19.9141 20.904 19.6906C20.793 19.4671 19.902 17.2726 19.53 16.3801C19.1685 15.5116 18.801 15.6301 18.528 15.6151C18.267 15.6031 17.97 15.6001 17.673 15.6001C17.376 15.6001 16.893 15.7111 16.485 16.1581C16.0755 16.6036 14.925 17.6821 14.925 19.8766C14.925 22.0696 16.521 24.1891 16.7445 24.4876C16.968 24.7846 19.887 29.2876 24.3585 31.2181C25.4235 31.6771 26.253 31.9516 26.8995 32.1556C27.9675 32.4961 28.9395 32.4481 29.7075 32.3326C30.5625 32.2051 32.3445 31.2541 32.7165 30.2131C33.087 29.1721 33.087 28.2796 32.976 28.0936C32.865 27.9076 32.568 27.7966 32.121 27.5731H32.1225ZM23.9895 38.6776H23.9835C21.3276 38.678 18.7206 37.9641 16.4355 36.6106L15.8955 36.2896L10.2825 37.7626L11.781 32.2906L11.4285 31.7296C9.94371 29.3661 9.15794 26.6307 9.162 23.8396C9.165 15.6646 15.816 9.01356 23.9955 9.01356C27.9555 9.01356 31.6785 10.5586 34.4775 13.3606C35.8581 14.7354 36.9523 16.3704 37.6969 18.1709C38.4415 19.9714 38.8217 21.9017 38.8155 23.8501C38.8125 32.0251 32.1615 38.6776 23.9895 38.6776ZM36.6075 11.2321C34.9548 9.56845 32.9883 8.24937 30.8221 7.35126C28.6559 6.45316 26.333 5.99389 23.988 6.00006C14.157 6.00006 6.153 14.0026 6.15 23.8381C6.1485 26.9821 6.969 30.0511 8.5305 32.7556L6 42.0001L15.456 39.5191C18.0718 40.9442 21.0031 41.691 23.982 41.6911H23.9895C33.8205 41.6911 41.8245 33.6886 41.8275 23.8516C41.8348 21.5075 41.3771 19.1852 40.4811 17.0191C39.5851 14.853 38.2685 12.8861 36.6075 11.2321Z" fill="white"/>
</g>
<defs>
<clipPath id="clip0">
<rect width="36" height="36" fill="white" transform="translate(6 6)"/>
</clipPath>
</defs>
</svg>
